rtl/flexpipe.vcd
$version Generated by VerilatedVcd $end
$date Sun Nov 23 21:20:52 2025
 $end
$timescale   1ps $end

 $scope module TOP $end
  $var wire 197 d active_config [196:0] $end
  $var wire  1 Q clk $end
  $var wire  1 ` core_idle $end
  $var wire 109 l core_mem_req [108:0] $end
  $var wire  1 q core_mem_req_ready $end
  $var wire  1 p core_mem_req_valid $end
  $var wire 268 r core_mem_resp [267:0] $end
  $var wire  1 { core_mem_resp_valid $end
  $var wire  1 a core_pipeline_drained $end
  $var wire 32 T dbg_cycle_count [31:0] $end
  $var wire  1 S dbg_mode $end
  $var wire  1 b flip_ack $end
  $var wire  1 k layer_start_pulse $end
  $var wire  1 #! mem_master_ready $end
  $var wire 109 | mem_master_req [108:0] $end
  $var wire 268 $! mem_master_resp [267:0] $end
  $var wire  1 -! mem_master_resp_valid $end
  $var wire  1 "! mem_master_valid $end
  $var wire  1 c request_flip $end
  $var wire  1 R rst_n $end
  $var wire 64 U s_axi_awaddr [63:0] $end
  $var wire  1 X s_axi_awready $end
  $var wire  1 W s_axi_awvalid $end
  $var wire  1 _ s_axi_bready $end
  $var wire  2 ] s_axi_bresp [1:0] $end
  $var wire  1 ^ s_axi_bvalid $end
  $var wire 32 Y s_axi_wdata [31:0] $end
  $var wire  1 \ s_axi_wready $end
  $var wire  4 Z s_axi_wstrb [3:0] $end
  $var wire  1 [ s_axi_wvalid $end
  $scope module flexpipe_pkg $end
   $var wire 32 2! ADDR_WIDTH [31:0] $end
   $var wire 32 1! CONFIG_BUS_WIDTH_BITS [31:0] $end
   $var wire 32 0! CONFIG_BUS_WIDTH_BYTES [31:0] $end
   $var wire 32 3! DATA_WIDTH [31:0] $end
   $var wire 32 0! EPOCH_WIDTH [31:0] $end
   $var wire 32 5! MAX_OUTSTANDING_REQS [31:0] $end
   $var wire 32 4! MRN_DRAIN_CYCLES [31:0] $end
   $var wire 32 6! REQ_ID_WIDTH [31:0] $end
  $upscope $end
  $scope module flexpipe_top $end
   $var wire 197 d active_config [196:0] $end
   $var wire 109 % arb_to_dram_req [108:0] $end
   $var wire  1 ) arb_to_dram_valid $end
   $var wire 32 4 bytes_fetched_w [31:0] $end
   $var wire  1 Q clk $end
   $var wire  1 ` core_idle $end
   $var wire 109 l core_mem_req [108:0] $end
   $var wire  1 q core_mem_req_ready $end
   $var wire  1 p core_mem_req_valid $end
   $var wire 268 r core_mem_resp [267:0] $end
   $var wire  1 { core_mem_resp_valid $end
   $var wire  1 a core_pipeline_drained $end
   $var wire  4 2 current_epoch [3:0] $end
   $var wire 32 T dbg_cycle_count [31:0] $end
   $var wire 32 ; dbg_cycle_count_r [31:0] $end
   $var wire  1 S dbg_mode $end
   $var wire  1 b flip_ack $end
   $var wire  1 k layer_start_pulse $end
   $var wire  1 #! mem_master_ready $end
   $var wire 109 | mem_master_req [108:0] $end
   $var wire 268 $! mem_master_resp [267:0] $end
   $var wire  1 -! mem_master_resp_valid $end
   $var wire  1 "! mem_master_valid $end
   $var wire  1 : no_outstanding_active $end
   $var wire  1 3 prefetch_busy $end
   $var wire 109 5 prefetch_req [108:0] $end
   $var wire  1 # prefetch_req_ready $end
   $var wire  1 9 prefetch_req_valid $end
   $var wire 268 $! prefetch_resp [267:0] $end
   $var wire  1 $ prefetch_resp_valid $end
   $var wire  1 < prefetch_start $end
   $var wire  1 c request_flip $end
   $var wire  1 R rst_n $end
   $var wire 64 U s_axi_awaddr [63:0] $end
   $var wire  1 X s_axi_awready $end
   $var wire  1 W s_axi_awvalid $end
   $var wire  1 _ s_axi_bready $end
   $var wire  2 ] s_axi_bresp [1:0] $end
   $var wire  1 ^ s_axi_bvalid $end
   $var wire 32 Y s_axi_wdata [31:0] $end
   $var wire  1 \ s_axi_wready $end
   $var wire  4 Z s_axi_wstrb [3:0] $end
   $var wire  1 [ s_axi_wvalid $end
   $var wire 197 + shadow_config [196:0] $end
   $scope module u_config_manager $end
    $var wire 197 d active_config [196:0] $end
    $var wire 197 = active_config_r [196:0] $end
    $var wire  2 G axi_state [1:0] $end
    $var wire  1 Q clk $end
    $var wire  1 .! core_safe_to_flip $end
    $var wire  4 2 current_epoch [3:0] $end
    $var wire  4 2 epoch_counter [3:0] $end
    $var wire  1 b flip_ack $end
    $var wire  1 k layer_start_pulse $end
    $var wire  1 : no_outstanding_active $end
    $var wire  1 c request_flip $end
    $var wire  1 E request_flip_r $end
    $var wire  1 R rst_n $end
    $var wire 64 U s_axi_awaddr [63:0] $end
    $var wire  1 X s_axi_awready $end
    $var wire  1 W s_axi_awvalid $end
    $var wire  1 _ s_axi_bready $end
    $var wire  2 ] s_axi_bresp [1:0] $end
    $var wire  1 ^ s_axi_bvalid $end
    $var wire 32 Y s_axi_wdata [31:0] $end
    $var wire  1 \ s_axi_wready $end
    $var wire  4 Z s_axi_wstrb [3:0] $end
    $var wire  1 [ s_axi_wvalid $end
    $var wire 197 + shadow_config [196:0] $end
    $var wire 197 + shadow_config_r [196:0] $end
    $var wire  1 D shadow_full $end
    $var wire  3 F write_idx [2:0] $end
   $upscope $end
   $scope module u_memory_arbiter $end
    $var wire 32 /! ID_SRC_BIT [31:0] $end
    $var wire  8 O active_cnt [7:0] $end
    $var wire 109 l active_req [108:0] $end
    $var wire  1 q active_req_ready $end
    $var wire  1 p active_req_valid $end
    $var wire 268 r active_resp [267:0] $end
    $var wire  1 { active_resp_valid $end
    $var wire  1 Q clk $end
    $var wire  1 #! mem_master_ready $end
    $var wire 109 % mem_master_req [108:0] $end
    $var wire 268 $! mem_master_resp [267:0] $end
    $var wire  1 -! mem_master_resp_valid $end
    $var wire  1 ) mem_master_valid $end
    $var wire  1 : no_outstanding_active $end
    $var wire  8 P prefetch_cnt [7:0] $end
    $var wire 109 5 prefetch_req [108:0] $end
    $var wire  1 # prefetch_req_ready $end
    $var wire  1 9 prefetch_req_valid $end
    $var wire 268 $! prefetch_resp [267:0] $end
    $var wire  1 $ prefetch_resp_valid $end
    $var wire  1 R rst_n $end
   $upscope $end
   $scope module u_prefetch_dma $end
    $var wire  1 3 busy $end
    $var wire 32 4 bytes_accum [31:0] $end
    $var wire 32 4 bytes_fetched [31:0] $end
    $var wire  1 Q clk $end
    $var wire  4 2 current_epoch [3:0] $end
    $var wire 64 I current_ptr_addr [63:0] $end
    $var wire 64 K fetched_data_addr [63:0] $end
    $var wire 109 5 mem_req [108:0] $end
    $var wire  1 # mem_req_ready $end
    $var wire  1 9 mem_req_valid $end
    $var wire 268 $! mem_resp [267:0] $end
    $var wire  1 $ mem_resp_valid $end
    $var wire  4 N my_epoch [3:0] $end
    $var wire  3 * next_state [2:0] $end
    $var wire  1 R rst_n $end
    $var wire 197 + shadow_config [196:0] $end
    $var wire  1 < start_prefetch $end
    $var wire  3 H state [2:0] $end
    $var wire 32 M walks_remaining [31:0] $end
   $upscope $end
  $upscope $end
 $upscope $end
$enddefinitions $end


#0
0#
0$
b0000000000000000000000000000000000000000000000000000000000000000000000000000000000000000000000000000000000000 %
0)
b000 *
b00000000000000000000000000000000000000000000000000000000000000000000000000000000000000000000000000000000000000000000000000000000000000000000000000000000000000000000000000000000000000000000000000000 +
b0000 2
03
b00000000000000000000000000000000 4
b0000000000000000000000000000000000000000000000000000000000000000000000000000000000000000000000000000000000000 5
09
1:
b00000000000000000000000000000000 ;
0<
b00000000000000000000000000000000000000000000000000000000000000000000000000000000000000000000000000000000000000000000000000000000000000000000000000000000000000000000000000000000000000000000000000000 =
0D
0E
b000 F
b00 G
b000 H
b0000000000000000000000000000000000000000000000000000000000000000 I
b0000000000000000000000000000000000000000000000000000000000000000 K
b00000000000000000000000000000000 M
b0000 N
b00000000 O
b00000000 P
0Q
0R
0S
b00000000000000000000000000000000 T
b0000000000000000000000000000000000000000000000000000000000000000 U
0W
1X
b00000000000000000000000000000000 Y
b0000 Z
0[
0\
b00 ]
0^
0_
0`
0a
0b
0c
b00000000000000000000000000000000000000000000000000000000000000000000000000000000000000000000000000000000000000000000000000000000000000000000000000000000000000000000000000000000000000000000000000000 d
0k
b0000000000000000000000000000000000000000000000000000000000000000000000000000000000000000000000000000000000000 l
0p
0q
b0000000000000000000000000000000000000000000000000000000000000000000000000000000000000000000000000000000000000000000000000000000000000000000000000000000000000000000000000000000000000000000000000000000000000000000000000000000000000000000000000000000000000000000000000000 r
0{
b0000000000000000000000000000000000000000000000000000000000000000000000000000000000000000000000000000000000000 |
0"!
0#!
b0000000000000000000000000000000000000000000000000000000000000000000000000000000000000000000000000000000000000000000000000000000000000000000000000000000000000000000000000000000000000000000000000000000000000000000000000000000000000000000000000000000000000000000000000000 $!
0-!
0.!
b00000000000000000000000000000101 /!
b00000000000000000000000000000100 0!
b00000000000000000000000000100000 1!
b00000000000000000000000001000000 2!
b00000000000000000000000100000000 3!
b00000000000000000000000000110010 4!
b00000000000000000000000000010000 5!
b00000000000000000000000000000110 6!
#1
1Q
#2
0Q
#3
1Q
#4
0Q
#5
1Q
#6
0Q
#7
1Q
#8
0Q
#9
1Q
#10
0Q
1R
#11
b00000000000000000000000000000001 ;
1Q
1S
b00000000000000000000000000000001 T
#12
0Q
#13
b00000000000000000000000000000010 ;
1Q
b00000000000000000000000000000010 T
#14
0Q
#15
b00000000000000000000000000000011 ;
1Q
b00000000000000000000000000000011 T
#16
0Q
#17
b00000000000000000000000000000100 ;
1Q
b00000000000000000000000000000100 T
#18
0Q
#19
b00000000000000000000000000000101 ;
1Q
b00000000000000000000000000000101 T
#20
0Q
#21
b00000000000000000000000000000110 ;
1Q
b00000000000000000000000000000110 T
#22
0Q
#23
b00000000000000000000000000000111 ;
1Q
b00000000000000000000000000000111 T
b0000000000000000000000000000000000000000000000000000000000000000000000000000000000000000000000000000000000000000000000000000000000000000000000000000000000000000000000000000000000000000000000000000000000000000000000000000000000000000000000000000000000000000000000000000 r
b0000000000000000000000000000000000000000000000000000000000000000000000000000000000000000000000000000000000000000000000000000000000000000000000000000000000000000000000000000000000000000000000000000000000000000000000000000000000000000000000000000000000000000000000000000 $!
#24
0Q
#25
b00000000000000000000000000001000 ;
1Q
b00000000000000000000000000001000 T
#26
0Q
#27
b00000000000000000000000000001001 ;
1Q
b00000000000000000000000000001001 T
#28
0Q
#29
b00000000000000000000000000001010 ;
1Q
b00000000000000000000000000001010 T
#30
0Q
#31
b00000000000000000000000000001011 ;
1Q
b00000000000000000000000000001011 T
#32
0Q
#33
b00000000000000000000000000001100 ;
1Q
b00000000000000000000000000001100 T
#34
0Q
#35
b00000000000000000000000000001101 ;
1Q
b00000000000000000000000000001101 T
#36
0Q
#37
b00000000000000000000000000001110 ;
1Q
b00000000000000000000000000001110 T
b0000000000010000000100000001000000010000000100000001000000010000000100000001000000010000000100000001000000010000000100000001000000010000000100000001000000010000000100000001000000010000000100000001000000010000000100000001000000010000000100000001000000010000000100000001 r
b0000000000010000000100000001000000010000000100000001000000010000000100000001000000010000000100000001000000010000000100000001000000010000000100000001000000010000000100000001000000010000000100000001000000010000000100000001000000010000000100000001000000010000000100000001 $!
#38
0Q
#39
b00000000000000000000000000001111 ;
1Q
b00000000000000000000000000001111 T
#40
0Q
#41
b00000000000000000000000000010000 ;
1Q
b00000000000000000000000000010000 T
#42
0Q
#43
b00000000000000000000000000010001 ;
1Q
b00000000000000000000000000010001 T
#44
0Q
#45
b00000000000000000000000000010010 ;
1Q
b00000000000000000000000000010010 T
#46
0Q
#47
b00000000000000000000000000010011 ;
1Q
b00000000000000000000000000010011 T
#48
0Q
#49
b00000000000000000000000000010100 ;
1Q
b00000000000000000000000000010100 T
#50
0Q
#51
b00000000000000000000000000010101 ;
1Q
b00000000000000000000000000010101 T
b0000000000100000001000000010000000100000001000000010000000100000001000000010000000100000001000000010000000100000001000000010000000100000001000000010000000100000001000000010000000100000001000000010000000100000001000000010000000100000001000000010000000100000001000000010 r
b0000000000100000001000000010000000100000001000000010000000100000001000000010000000100000001000000010000000100000001000000010000000100000001000000010000000100000001000000010000000100000001000000010000000100000001000000010000000100000001000000010000000100000001000000010 $!
#52
0Q
#53
b00000000000000000000000000010110 ;
1Q
b00000000000000000000000000010110 T
#54
0Q
#55
b00000000000000000000000000010111 ;
1Q
b00000000000000000000000000010111 T
#56
0Q
#57
b00000000000000000000000000011000 ;
1Q
b00000000000000000000000000011000 T
#58
0Q
#59
b00000000000000000000000000011001 ;
1Q
b00000000000000000000000000011001 T
#60
0Q
#61
b00000000000000000000000000011010 ;
1Q
b00000000000000000000000000011010 T
#62
0Q
#63
b00000000000000000000000000011011 ;
1Q
b00000000000000000000000000011011 T
#64
0Q
#65
b00000000000000000000000000011100 ;
1Q
b00000000000000000000000000011100 T
b0000000000110000001100000011000000110000001100000011000000110000001100000011000000110000001100000011000000110000001100000011000000110000001100000011000000110000001100000011000000110000001100000011000000110000001100000011000000110000001100000011000000110000001100000011 r
b0000000000110000001100000011000000110000001100000011000000110000001100000011000000110000001100000011000000110000001100000011000000110000001100000011000000110000001100000011000000110000001100000011000000110000001100000011000000110000001100000011000000110000001100000011 $!
#66
0Q
#67
b00000000000000000000000000011101 ;
1Q
b00000000000000000000000000011101 T
#68
0Q
#69
b00000000000000000000000000011110 ;
1Q
b00000000000000000000000000011110 T
#70
0Q
#71
b00000000000000000000000000011111 ;
1Q
b00000000000000000000000000011111 T
#72
0Q
#73
b00000000000000000000000000100000 ;
1Q
b00000000000000000000000000100000 T
#74
0Q
#75
b00000000000000000000000000100001 ;
1Q
b00000000000000000000000000100001 T
#76
0Q
#77
b00000000000000000000000000100010 ;
1Q
b00000000000000000000000000100010 T
#78
0Q
#79
b00000000000000000000000000100011 ;
1Q
b00000000000000000000000000100011 T
b0000000001000000010000000100000001000000010000000100000001000000010000000100000001000000010000000100000001000000010000000100000001000000010000000100000001000000010000000100000001000000010000000100000001000000010000000100000001000000010000000100000001000000010000000100 r
b0000000001000000010000000100000001000000010000000100000001000000010000000100000001000000010000000100000001000000010000000100000001000000010000000100000001000000010000000100000001000000010000000100000001000000010000000100000001000000010000000100000001000000010000000100 $!
#80
0Q
#81
b00000000000000000000000000100100 ;
1Q
b00000000000000000000000000100100 T
#82
0Q
#83
b00000000000000000000000000100101 ;
1Q
b00000000000000000000000000100101 T
#84
0Q
#85
b00000000000000000000000000100110 ;
1Q
b00000000000000000000000000100110 T
#86
0Q
#87
b00000000000000000000000000100111 ;
1Q
b00000000000000000000000000100111 T
#88
0Q
#89
b00000000000000000000000000101000 ;
1Q
b00000000000000000000000000101000 T
#90
0Q
#91
b00000000000000000000000000101001 ;
1Q
b00000000000000000000000000101001 T
#92
0Q
#93
b00000000000000000000000000101010 ;
1Q
b00000000000000000000000000101010 T
b0000000001010000010100000101000001010000010100000101000001010000010100000101000001010000010100000101000001010000010100000101000001010000010100000101000001010000010100000101000001010000010100000101000001010000010100000101000001010000010100000101000001010000010100000101 r
b0000000001010000010100000101000001010000010100000101000001010000010100000101000001010000010100000101000001010000010100000101000001010000010100000101000001010000010100000101000001010000010100000101000001010000010100000101000001010000010100000101000001010000010100000101 $!
#94
0Q
#95
b00000000000000000000000000101011 ;
1Q
b00000000000000000000000000101011 T
#96
0Q
#97
b00000000000000000000000000101100 ;
1Q
b00000000000000000000000000101100 T
#98
0Q
#99
b00000000000000000000000000101101 ;
1Q
b00000000000000000000000000101101 T
#100
0Q
#101
b00000000000000000000000000101110 ;
1Q
b00000000000000000000000000101110 T
#102
0Q
#103
b00000000000000000000000000101111 ;
1Q
b00000000000000000000000000101111 T
#104
0Q
#105
b00000000000000000000000000110000 ;
1Q
b00000000000000000000000000110000 T
#106
0Q
#107
b00000000000000000000000000110001 ;
1Q
b00000000000000000000000000110001 T
b0000000001100000011000000110000001100000011000000110000001100000011000000110000001100000011000000110000001100000011000000110000001100000011000000110000001100000011000000110000001100000011000000110000001100000011000000110000001100000011000000110000001100000011000000110 r
b0000000001100000011000000110000001100000011000000110000001100000011000000110000001100000011000000110000001100000011000000110000001100000011000000110000001100000011000000110000001100000011000000110000001100000011000000110000001100000011000000110000001100000011000000110 $!
#108
0Q
#109
b00000000000000000000000000110010 ;
1Q
b00000000000000000000000000110010 T
#110
0Q
#111
b00000000000000000000000000110011 ;
1Q
b00000000000000000000000000110011 T
#112
0Q
#113
b00000000000000000000000000110100 ;
1Q
b00000000000000000000000000110100 T
#114
0Q
#115
b00000000000000000000000000110101 ;
1Q
b00000000000000000000000000110101 T
#116
0Q
#117
b00000000000000000000000000110110 ;
1Q
b00000000000000000000000000110110 T
#118
0Q
#119
b00000000000000000000000000110111 ;
1Q
b00000000000000000000000000110111 T
#120
0Q
#121
b00000000000000000000000000111000 ;
1Q
b00000000000000000000000000111000 T
b0000000001110000011100000111000001110000011100000111000001110000011100000111000001110000011100000111000001110000011100000111000001110000011100000111000001110000011100000111000001110000011100000111000001110000011100000111000001110000011100000111000001110000011100000111 r
b0000000001110000011100000111000001110000011100000111000001110000011100000111000001110000011100000111000001110000011100000111000001110000011100000111000001110000011100000111000001110000011100000111000001110000011100000111000001110000011100000111000001110000011100000111 $!
#122
0Q
#123
b00000000000000000000000000111001 ;
1Q
b00000000000000000000000000111001 T
#124
0Q
#125
b00000000000000000000000000111010 ;
1Q
b00000000000000000000000000111010 T
#126
0Q
#127
b00000000000000000000000000111011 ;
1Q
b00000000000000000000000000111011 T
#128
0Q
#129
b00000000000000000000000000111100 ;
1Q
b00000000000000000000000000111100 T
#130
0Q
#131
b00000000000000000000000000111101 ;
1Q
b00000000000000000000000000111101 T
#132
0Q
#133
b00000000000000000000000000111110 ;
1Q
b00000000000000000000000000111110 T
#134
0Q
#135
b00000000000000000000000000111111 ;
1Q
b00000000000000000000000000111111 T
b0000000010000000100000001000000010000000100000001000000010000000100000001000000010000000100000001000000010000000100000001000000010000000100000001000000010000000100000001000000010000000100000001000000010000000100000001000000010000000100000001000000010000000100000001000 r
b0000000010000000100000001000000010000000100000001000000010000000100000001000000010000000100000001000000010000000100000001000000010000000100000001000000010000000100000001000000010000000100000001000000010000000100000001000000010000000100000001000000010000000100000001000 $!
#136
0Q
#137
b00000000000000000000000001000000 ;
1Q
b00000000000000000000000001000000 T
#138
0Q
#139
b00000000000000000000000001000001 ;
1Q
b00000000000000000000000001000001 T
#140
0Q
#141
b00000000000000000000000001000010 ;
1Q
b00000000000000000000000001000010 T
#142
0Q
#143
b00000000000000000000000001000011 ;
1Q
b00000000000000000000000001000011 T
#144
0Q
#145
b00000000000000000000000001000100 ;
1Q
b00000000000000000000000001000100 T
#146
0Q
#147
b00000000000000000000000001000101 ;
1Q
b00000000000000000000000001000101 T
#148
0Q
#149
b00000000000000000000000001000110 ;
1Q
b00000000000000000000000001000110 T
b0000000010010000100100001001000010010000100100001001000010010000100100001001000010010000100100001001000010010000100100001001000010010000100100001001000010010000100100001001000010010000100100001001000010010000100100001001000010010000100100001001000010010000100100001001 r
b0000000010010000100100001001000010010000100100001001000010010000100100001001000010010000100100001001000010010000100100001001000010010000100100001001000010010000100100001001000010010000100100001001000010010000100100001001000010010000100100001001000010010000100100001001 $!
#150
0Q
#151
1Q
0S
