rtl/outputs/flexpipe.vcd
$version Generated by VerilatedVcd $end
$date Fri Nov 28 18:54:56 2025
 $end
$timescale   1ps $end

 $scope module TOP $end
  $var wire 197 d active_config [196:0] $end
  $var wire  1 Q clk $end
  $var wire  1 ` core_idle $end
  $var wire 109 l core_mem_req [108:0] $end
  $var wire  1 q core_mem_req_ready $end
  $var wire  1 p core_mem_req_valid $end
  $var wire 268 r core_mem_resp [267:0] $end
  $var wire  1 { core_mem_resp_valid $end
  $var wire  1 a core_pipeline_drained $end
  $var wire 32 T dbg_cycle_count [31:0] $end
  $var wire  1 S dbg_mode $end
  $var wire  1 b flip_ack $end
  $var wire  1 k layer_start_pulse $end
  $var wire  1 #! mem_master_ready $end
  $var wire 109 | mem_master_req [108:0] $end
  $var wire 268 $! mem_master_resp [267:0] $end
  $var wire  1 -! mem_master_resp_valid $end
  $var wire  1 "! mem_master_valid $end
  $var wire  1 c request_flip $end
  $var wire  1 R rst_n $end
  $var wire 64 U s_axi_awaddr [63:0] $end
  $var wire  1 X s_axi_awready $end
  $var wire  1 W s_axi_awvalid $end
  $var wire  1 _ s_axi_bready $end
  $var wire  2 ] s_axi_bresp [1:0] $end
  $var wire  1 ^ s_axi_bvalid $end
  $var wire 32 Y s_axi_wdata [31:0] $end
  $var wire  1 \ s_axi_wready $end
  $var wire  4 Z s_axi_wstrb [3:0] $end
  $var wire  1 [ s_axi_wvalid $end
  $scope module flexpipe_pkg $end
   $var wire 32 2! ADDR_WIDTH [31:0] $end
   $var wire 32 1! CONFIG_BUS_WIDTH_BITS [31:0] $end
   $var wire 32 0! CONFIG_BUS_WIDTH_BYTES [31:0] $end
   $var wire 32 3! DATA_WIDTH [31:0] $end
   $var wire 32 0! EPOCH_WIDTH [31:0] $end
   $var wire 32 5! MAX_OUTSTANDING_REQS [31:0] $end
   $var wire 32 4! MRN_DRAIN_CYCLES [31:0] $end
   $var wire 32 6! REQ_ID_WIDTH [31:0] $end
  $upscope $end
  $scope module flexpipe_top $end
   $var wire 197 d active_config [196:0] $end
   $var wire 109 % arb_to_dram_req [108:0] $end
   $var wire  1 ) arb_to_dram_valid $end
   $var wire 32 4 bytes_fetched_w [31:0] $end
   $var wire  1 Q clk $end
   $var wire  1 ` core_idle $end
   $var wire 109 l core_mem_req [108:0] $end
   $var wire  1 q core_mem_req_ready $end
   $var wire  1 p core_mem_req_valid $end
   $var wire 268 r core_mem_resp [267:0] $end
   $var wire  1 { core_mem_resp_valid $end
   $var wire  1 a core_pipeline_drained $end
   $var wire  4 2 current_epoch [3:0] $end
   $var wire 32 T dbg_cycle_count [31:0] $end
   $var wire 32 ; dbg_cycle_count_r [31:0] $end
   $var wire  1 S dbg_mode $end
   $var wire  1 b flip_ack $end
   $var wire  1 k layer_start_pulse $end
   $var wire  1 #! mem_master_ready $end
   $var wire 109 | mem_master_req [108:0] $end
   $var wire 268 $! mem_master_resp [267:0] $end
   $var wire  1 -! mem_master_resp_valid $end
   $var wire  1 "! mem_master_valid $end
   $var wire  1 : no_outstanding_active $end
   $var wire  1 3 prefetch_busy $end
   $var wire 109 5 prefetch_req [108:0] $end
   $var wire  1 # prefetch_req_ready $end
   $var wire  1 9 prefetch_req_valid $end
   $var wire 268 $! prefetch_resp [267:0] $end
   $var wire  1 $ prefetch_resp_valid $end
   $var wire  1 < prefetch_start $end
   $var wire  1 c request_flip $end
   $var wire  1 R rst_n $end
   $var wire 64 U s_axi_awaddr [63:0] $end
   $var wire  1 X s_axi_awready $end
   $var wire  1 W s_axi_awvalid $end
   $var wire  1 _ s_axi_bready $end
   $var wire  2 ] s_axi_bresp [1:0] $end
   $var wire  1 ^ s_axi_bvalid $end
   $var wire 32 Y s_axi_wdata [31:0] $end
   $var wire  1 \ s_axi_wready $end
   $var wire  4 Z s_axi_wstrb [3:0] $end
   $var wire  1 [ s_axi_wvalid $end
   $var wire 197 + shadow_config [196:0] $end
   $scope module u_config_manager $end
    $var wire 197 d active_config [196:0] $end
    $var wire 197 = active_config_r [196:0] $end
    $var wire  2 G axi_state [1:0] $end
    $var wire  1 Q clk $end
    $var wire  1 .! core_safe_to_flip $end
    $var wire  4 2 current_epoch [3:0] $end
    $var wire  4 2 epoch_counter [3:0] $end
    $var wire  1 b flip_ack $end
    $var wire  1 k layer_start_pulse $end
    $var wire  1 : no_outstanding_active $end
    $var wire  1 c request_flip $end
    $var wire  1 E request_flip_r $end
    $var wire  1 R rst_n $end
    $var wire 64 U s_axi_awaddr [63:0] $end
    $var wire  1 X s_axi_awready $end
    $var wire  1 W s_axi_awvalid $end
    $var wire  1 _ s_axi_bready $end
    $var wire  2 ] s_axi_bresp [1:0] $end
    $var wire  1 ^ s_axi_bvalid $end
    $var wire 32 Y s_axi_wdata [31:0] $end
    $var wire  1 \ s_axi_wready $end
    $var wire  4 Z s_axi_wstrb [3:0] $end
    $var wire  1 [ s_axi_wvalid $end
    $var wire 197 + shadow_config [196:0] $end
    $var wire 197 + shadow_config_r [196:0] $end
    $var wire  1 D shadow_full $end
    $var wire  3 F write_idx [2:0] $end
   $upscope $end
   $scope module u_memory_arbiter $end
    $var wire 32 /! ID_SRC_BIT [31:0] $end
    $var wire  8 O active_cnt [7:0] $end
    $var wire 109 l active_req [108:0] $end
    $var wire  1 q active_req_ready $end
    $var wire  1 p active_req_valid $end
    $var wire 268 r active_resp [267:0] $end
    $var wire  1 { active_resp_valid $end
    $var wire  1 Q clk $end
    $var wire  1 #! mem_master_ready $end
    $var wire 109 % mem_master_req [108:0] $end
    $var wire 268 $! mem_master_resp [267:0] $end
    $var wire  1 -! mem_master_resp_valid $end
    $var wire  1 ) mem_master_valid $end
    $var wire  1 : no_outstanding_active $end
    $var wire  8 P prefetch_cnt [7:0] $end
    $var wire 109 5 prefetch_req [108:0] $end
    $var wire  1 # prefetch_req_ready $end
    $var wire  1 9 prefetch_req_valid $end
    $var wire 268 $! prefetch_resp [267:0] $end
    $var wire  1 $ prefetch_resp_valid $end
    $var wire  1 R rst_n $end
   $upscope $end
   $scope module u_prefetch_dma $end
    $var wire  1 3 busy $end
    $var wire 32 4 bytes_accum [31:0] $end
    $var wire 32 4 bytes_fetched [31:0] $end
    $var wire  1 Q clk $end
    $var wire  4 2 current_epoch [3:0] $end
    $var wire 64 I current_ptr_addr [63:0] $end
    $var wire 64 K fetched_data_addr [63:0] $end
    $var wire 109 5 mem_req [108:0] $end
    $var wire  1 # mem_req_ready $end
    $var wire  1 9 mem_req_valid $end
    $var wire 268 $! mem_resp [267:0] $end
    $var wire  1 $ mem_resp_valid $end
    $var wire  4 N my_epoch [3:0] $end
    $var wire  3 * next_state [2:0] $end
    $var wire  1 R rst_n $end
    $var wire 197 + shadow_config [196:0] $end
    $var wire  1 < start_prefetch $end
    $var wire  3 H state [2:0] $end
    $var wire 32 M walks_remaining [31:0] $end
   $upscope $end
  $upscope $end
 $upscope $end
$enddefinitions $end


#0
0#
0$
b0000000000000000000000000000000000000000000000000000000000000000000000000000000000000000000000000000000000000 %
0)
b000 *
b00000000000000000000000000000000000000000000000000000000000000000000000000000000000000000000000000000000000000000000000000000000000000000000000000000000000000000000000000000000000000000000000000000 +
b0000 2
03
b00000000000000000000000000000000 4
b0000000000000000000000000000000000000000000000000000000000000000000000000000000000000000000000000000000000000 5
09
1:
b00000000000000000000000000000000 ;
0<
b00000000000000000000000000000000000000000000000000000000000000000000000000000000000000000000000000000000000000000000000000000000000000000000000000000000000000000000000000000000000000000000000000000 =
0D
0E
b000 F
b00 G
b000 H
b0000000000000000000000000000000000000000000000000000000000000000 I
b0000000000000000000000000000000000000000000000000000000000000000 K
b00000000000000000000000000000000 M
b0000 N
b00000000 O
b00000000 P
0Q
0R
0S
b00000000000000000000000000000000 T
b0000000000000000000000000000000000000000000000000000000000000000 U
0W
1X
b00000000000000000000000000000000 Y
b0000 Z
0[
0\
b00 ]
0^
0_
1`
1a
0b
0c
b00000000000000000000000000000000000000000000000000000000000000000000000000000000000000000000000000000000000000000000000000000000000000000000000000000000000000000000000000000000000000000000000000000 d
0k
b0000000000000000000000000000000000000000000000000000000000000000000000000000000000000000000000000000000000000 l
0p
0q
b0000000000000000000000000000000000000000000000000000000000000000000000000000000000000000000000000000000000000000000000000000000000000000000000000000000000000000000000000000000000000000000000000000000000000000000000000000000000000000000000000000000000000000000000000000 r
0{
b0000000000000000000000000000000000000000000000000000000000000000000000000000000000000000000000000000000000000 |
0"!
0#!
b0000000000000000000000000000000000000000000000000000000000000000000000000000000000000000000000000000000000000000000000000000000000000000000000000000000000000000000000000000000000000000000000000000000000000000000000000000000000000000000000000000000000000000000000000000 $!
0-!
1.!
b00000000000000000000000000000101 /!
b00000000000000000000000000000100 0!
b00000000000000000000000000100000 1!
b00000000000000000000000001000000 2!
b00000000000000000000000100000000 3!
b00000000000000000000000000110010 4!
b00000000000000000000000000010000 5!
b00000000000000000000000000000110 6!
#1
1Q
#2
0Q
#3
1Q
#4
0Q
#5
1Q
#6
0Q
#7
1Q
#8
0Q
#9
1Q
#10
0Q
1R
#11
b01 G
1Q
1W
0X
b00000000000000000101000000000000 Y
b1111 Z
1[
1\
#12
0Q
0W
0[
#13
1Q
#14
0Q
#15
1Q
#16
0Q
#17
1Q
#18
0Q
#19
1Q
#20
0Q
#21
1Q
#22
0Q
#23
1Q
#24
0Q
#25
1Q
#26
0Q
#27
1Q
#28
0Q
#29
1Q
#30
0Q
#31
1Q
#32
0Q
#33
1Q
#34
0Q
#35
1Q
#36
0Q
#37
1Q
#38
0Q
#39
1Q
#40
0Q
#41
1Q
#42
0Q
#43
1Q
#44
0Q
#45
1Q
#46
0Q
#47
1Q
#48
0Q
#49
1Q
#50
0Q
#51
1Q
#52
0Q
#53
1Q
#54
0Q
#55
1Q
#56
0Q
#57
1Q
#58
0Q
#59
1Q
#60
0Q
#61
1Q
#62
0Q
#63
1Q
#64
0Q
#65
1Q
#66
0Q
#67
1Q
#68
0Q
#69
1Q
#70
0Q
#71
1Q
#72
0Q
#73
1Q
#74
0Q
#75
1Q
#76
0Q
#77
1Q
#78
0Q
#79
1Q
#80
0Q
#81
1Q
#82
0Q
#83
1Q
#84
0Q
#85
1Q
#86
0Q
#87
1Q
#88
0Q
#89
1Q
#90
0Q
#91
1Q
#92
0Q
#93
1Q
#94
0Q
#95
1Q
#96
0Q
#97
1Q
#98
0Q
#99
1Q
#100
0Q
#101
1Q
#102
0Q
#103
1Q
#104
0Q
#105
1Q
#106
0Q
#107
1Q
#108
0Q
#109
1Q
#110
0Q
#111
1Q
#112
0Q
#113
1Q
#114
0Q
#115
1Q
#116
0Q
#117
1Q
#118
0Q
#119
1Q
#120
0Q
#121
1Q
#122
0Q
#123
1Q
#124
0Q
#125
1Q
#126
0Q
#127
1Q
#128
0Q
#129
1Q
#130
0Q
#131
1Q
#132
0Q
#133
1Q
#134
0Q
#135
1Q
#136
0Q
#137
1Q
#138
0Q
#139
1Q
#140
0Q
#141
1Q
#142
0Q
#143
1Q
#144
0Q
#145
1Q
#146
0Q
#147
1Q
#148
0Q
#149
1Q
#150
0Q
#151
1Q
#152
0Q
#153
1Q
#154
0Q
#155
1Q
#156
0Q
#157
1Q
#158
0Q
#159
1Q
#160
0Q
#161
1Q
#162
0Q
#163
1Q
#164
0Q
#165
1Q
#166
0Q
#167
1Q
#168
0Q
#169
1Q
#170
0Q
#171
1Q
#172
0Q
#173
1Q
#174
0Q
#175
1Q
#176
0Q
#177
1Q
#178
0Q
#179
1Q
#180
0Q
#181
1Q
#182
0Q
#183
1Q
#184
0Q
#185
1Q
#186
0Q
#187
1Q
#188
0Q
#189
1Q
#190
0Q
#191
1Q
#192
0Q
#193
1Q
#194
0Q
#195
1Q
#196
0Q
#197
1Q
#198
0Q
#199
1Q
#200
0Q
#201
1Q
#202
0Q
#203
1Q
#204
0Q
#205
1Q
#206
0Q
#207
1Q
#208
0Q
#209
1Q
#210
0Q
#211
1Q
#212
0Q
#213
1Q
#214
0Q
#215
1Q
#216
0Q
#217
1Q
#218
0Q
#219
1Q
#220
0Q
#221
1Q
#222
0Q
#223
1Q
#224
0Q
#225
1Q
#226
0Q
#227
1Q
#228
0Q
#229
1Q
#230
0Q
#231
1Q
#232
0Q
#233
1Q
#234
0Q
#235
1Q
#236
0Q
#237
1Q
#238
0Q
#239
1Q
#240
0Q
#241
1Q
#242
0Q
#243
1Q
#244
0Q
#245
1Q
#246
0Q
#247
1Q
#248
0Q
#249
1Q
#250
0Q
#251
1Q
#252
0Q
#253
1Q
#254
0Q
#255
1Q
#256
0Q
#257
1Q
#258
0Q
#259
1Q
#260
0Q
#261
1Q
#262
0Q
#263
1Q
#264
0Q
#265
1Q
#266
0Q
#267
1Q
#268
0Q
#269
1Q
#270
0Q
#271
1Q
#272
0Q
#273
1Q
#274
0Q
#275
1Q
#276
0Q
#277
1Q
#278
0Q
#279
1Q
#280
0Q
#281
1Q
#282
0Q
#283
1Q
#284
0Q
#285
1Q
#286
0Q
#287
1Q
#288
0Q
#289
1Q
#290
0Q
#291
1Q
#292
0Q
#293
1Q
#294
0Q
#295
1Q
#296
0Q
#297
1Q
#298
0Q
#299
1Q
#300
0Q
#301
1Q
#302
0Q
#303
1Q
#304
0Q
#305
1Q
#306
0Q
#307
1Q
#308
0Q
#309
1Q
#310
0Q
#311
1Q
#312
0Q
#313
1Q
#314
0Q
#315
1Q
#316
0Q
#317
1Q
#318
0Q
#319
1Q
#320
0Q
#321
1Q
#322
0Q
#323
1Q
#324
0Q
#325
1Q
#326
0Q
#327
1Q
#328
0Q
#329
1Q
#330
0Q
#331
1Q
#332
0Q
#333
1Q
#334
0Q
#335
1Q
#336
0Q
#337
1Q
#338
0Q
#339
1Q
#340
0Q
#341
1Q
#342
0Q
#343
1Q
#344
0Q
#345
1Q
#346
0Q
#347
1Q
#348
0Q
#349
1Q
#350
0Q
#351
1Q
#352
0Q
#353
1Q
#354
0Q
#355
1Q
#356
0Q
#357
1Q
#358
0Q
#359
1Q
#360
0Q
#361
1Q
#362
0Q
#363
1Q
#364
0Q
#365
1Q
#366
0Q
#367
1Q
#368
0Q
#369
1Q
#370
0Q
#371
1Q
#372
0Q
#373
1Q
#374
0Q
#375
1Q
#376
0Q
#377
1Q
#378
0Q
#379
1Q
#380
0Q
#381
1Q
#382
0Q
#383
1Q
#384
0Q
#385
1Q
#386
0Q
#387
1Q
#388
0Q
#389
1Q
#390
0Q
#391
1Q
#392
0Q
#393
1Q
#394
0Q
#395
1Q
#396
0Q
#397
1Q
#398
0Q
#399
1Q
#400
0Q
#401
1Q
#402
0Q
#403
1Q
#404
0Q
#405
1Q
#406
0Q
#407
1Q
#408
0Q
#409
1Q
#410
0Q
#411
1Q
#412
0Q
#413
1Q
#414
0Q
#415
1Q
#416
0Q
#417
1Q
#418
0Q
#419
1Q
#420
0Q
#421
1Q
#422
0Q
#423
1Q
#424
0Q
#425
1Q
#426
0Q
#427
1Q
#428
0Q
#429
1Q
#430
0Q
#431
1Q
#432
0Q
#433
1Q
#434
0Q
#435
1Q
#436
0Q
#437
1Q
#438
0Q
#439
1Q
#440
0Q
#441
1Q
#442
0Q
#443
1Q
#444
0Q
#445
1Q
#446
0Q
#447
1Q
#448
0Q
#449
1Q
#450
0Q
#451
1Q
#452
0Q
#453
1Q
#454
0Q
#455
1Q
#456
0Q
#457
1Q
#458
0Q
#459
1Q
#460
0Q
#461
1Q
#462
0Q
#463
1Q
#464
0Q
#465
1Q
#466
0Q
#467
1Q
#468
0Q
#469
1Q
#470
0Q
#471
1Q
#472
0Q
#473
1Q
#474
0Q
#475
1Q
#476
0Q
#477
1Q
#478
0Q
#479
1Q
#480
0Q
#481
1Q
#482
0Q
#483
1Q
#484
0Q
#485
1Q
#486
0Q
#487
1Q
#488
0Q
#489
1Q
#490
0Q
#491
1Q
#492
0Q
#493
1Q
#494
0Q
#495
1Q
#496
0Q
#497
1Q
#498
0Q
#499
1Q
#500
0Q
#501
1Q
#502
0Q
#503
1Q
#504
0Q
#505
1Q
#506
0Q
#507
1Q
#508
0Q
#509
1Q
#510
0Q
#511
1Q
#512
0Q
1W
b00000000000111110100000000000000 Y
1[
#513
1Q
0W
0[
#514
0Q
#515
1Q
#516
0Q
#517
1Q
#518
0Q
#519
1Q
#520
0Q
#521
1Q
#522
0Q
#523
1Q
#524
0Q
#525
1Q
#526
0Q
#527
1Q
#528
0Q
#529
1Q
#530
0Q
#531
1Q
#532
0Q
#533
1Q
#534
0Q
#535
1Q
#536
0Q
#537
1Q
#538
0Q
#539
1Q
#540
0Q
#541
1Q
#542
0Q
#543
1Q
#544
0Q
#545
1Q
#546
0Q
#547
1Q
#548
0Q
#549
1Q
#550
0Q
#551
1Q
#552
0Q
#553
1Q
#554
0Q
#555
1Q
#556
0Q
#557
1Q
#558
0Q
#559
1Q
#560
0Q
#561
1Q
#562
0Q
#563
1Q
#564
0Q
#565
1Q
#566
0Q
#567
1Q
#568
0Q
#569
1Q
#570
0Q
#571
1Q
#572
0Q
#573
1Q
#574
0Q
#575
1Q
#576
0Q
#577
1Q
#578
0Q
#579
1Q
#580
0Q
#581
1Q
#582
0Q
#583
1Q
#584
0Q
#585
1Q
#586
0Q
#587
1Q
#588
0Q
#589
1Q
#590
0Q
#591
1Q
#592
0Q
#593
1Q
#594
0Q
#595
1Q
#596
0Q
#597
1Q
#598
0Q
#599
1Q
#600
0Q
#601
1Q
#602
0Q
#603
1Q
#604
0Q
#605
1Q
#606
0Q
#607
1Q
#608
0Q
#609
1Q
#610
0Q
#611
1Q
#612
0Q
#613
1Q
#614
0Q
#615
1Q
#616
0Q
#617
1Q
#618
0Q
#619
1Q
#620
0Q
#621
1Q
#622
0Q
#623
1Q
#624
0Q
#625
1Q
#626
0Q
#627
1Q
#628
0Q
#629
1Q
#630
0Q
#631
1Q
#632
0Q
#633
1Q
#634
0Q
#635
1Q
#636
0Q
#637
1Q
#638
0Q
#639
1Q
#640
0Q
#641
1Q
#642
0Q
#643
1Q
#644
0Q
#645
1Q
#646
0Q
#647
1Q
#648
0Q
#649
1Q
#650
0Q
#651
1Q
#652
0Q
#653
1Q
#654
0Q
#655
1Q
#656
0Q
#657
1Q
#658
0Q
#659
1Q
#660
0Q
#661
1Q
#662
0Q
#663
1Q
#664
0Q
#665
1Q
#666
0Q
#667
1Q
#668
0Q
#669
1Q
#670
0Q
#671
1Q
#672
0Q
#673
1Q
#674
0Q
#675
1Q
#676
0Q
#677
1Q
#678
0Q
#679
1Q
#680
0Q
#681
1Q
#682
0Q
#683
1Q
#684
0Q
#685
1Q
#686
0Q
#687
1Q
#688
0Q
#689
1Q
#690
0Q
#691
1Q
#692
0Q
#693
1Q
#694
0Q
#695
1Q
#696
0Q
#697
1Q
#698
0Q
#699
1Q
#700
0Q
#701
1Q
#702
0Q
#703
1Q
#704
0Q
#705
1Q
#706
0Q
#707
1Q
#708
0Q
#709
1Q
#710
0Q
#711
1Q
#712
0Q
#713
1Q
#714
0Q
#715
1Q
#716
0Q
#717
1Q
#718
0Q
#719
1Q
#720
0Q
#721
1Q
#722
0Q
#723
1Q
#724
0Q
#725
1Q
#726
0Q
#727
1Q
#728
0Q
#729
1Q
#730
0Q
#731
1Q
#732
0Q
#733
1Q
#734
0Q
#735
1Q
#736
0Q
#737
1Q
#738
0Q
#739
1Q
#740
0Q
#741
1Q
#742
0Q
#743
1Q
#744
0Q
#745
1Q
#746
0Q
#747
1Q
#748
0Q
#749
1Q
#750
0Q
#751
1Q
#752
0Q
#753
1Q
#754
0Q
#755
1Q
#756
0Q
#757
1Q
#758
0Q
#759
1Q
#760
0Q
#761
1Q
#762
0Q
#763
1Q
#764
0Q
#765
1Q
#766
0Q
#767
1Q
#768
0Q
#769
1Q
#770
0Q
#771
1Q
#772
0Q
#773
1Q
#774
0Q
#775
1Q
#776
0Q
#777
1Q
#778
0Q
#779
1Q
#780
0Q
#781
1Q
#782
0Q
#783
1Q
#784
0Q
#785
1Q
#786
0Q
#787
1Q
#788
0Q
#789
1Q
#790
0Q
#791
1Q
#792
0Q
#793
1Q
#794
0Q
#795
1Q
#796
0Q
#797
1Q
#798
0Q
#799
1Q
#800
0Q
#801
1Q
#802
0Q
#803
1Q
#804
0Q
#805
1Q
#806
0Q
#807
1Q
#808
0Q
#809
1Q
#810
0Q
#811
1Q
#812
0Q
#813
1Q
#814
0Q
#815
1Q
#816
0Q
#817
1Q
#818
0Q
#819
1Q
#820
0Q
#821
1Q
#822
0Q
#823
1Q
#824
0Q
#825
1Q
#826
0Q
#827
1Q
#828
0Q
#829
1Q
#830
0Q
#831
1Q
#832
0Q
#833
1Q
#834
0Q
#835
1Q
#836
0Q
#837
1Q
#838
0Q
#839
1Q
#840
0Q
#841
1Q
#842
0Q
#843
1Q
#844
0Q
#845
1Q
#846
0Q
#847
1Q
#848
0Q
#849
1Q
#850
0Q
#851
1Q
#852
0Q
#853
1Q
#854
0Q
#855
1Q
#856
0Q
#857
1Q
#858
0Q
#859
1Q
#860
0Q
#861
1Q
#862
0Q
#863
1Q
#864
0Q
#865
1Q
#866
0Q
#867
1Q
#868
0Q
#869
1Q
#870
0Q
#871
1Q
#872
0Q
#873
1Q
#874
0Q
#875
1Q
#876
0Q
#877
1Q
#878
0Q
#879
1Q
#880
0Q
#881
1Q
#882
0Q
#883
1Q
#884
0Q
#885
1Q
#886
0Q
#887
1Q
#888
0Q
#889
1Q
#890
0Q
#891
1Q
#892
0Q
#893
1Q
#894
0Q
#895
1Q
#896
0Q
#897
1Q
#898
0Q
#899
1Q
#900
0Q
#901
1Q
#902
0Q
#903
1Q
#904
0Q
#905
1Q
#906
0Q
#907
1Q
#908
0Q
#909
1Q
#910
0Q
#911
1Q
#912
0Q
#913
1Q
#914
0Q
#915
1Q
#916
0Q
#917
1Q
#918
0Q
#919
1Q
#920
0Q
#921
1Q
#922
0Q
#923
1Q
#924
0Q
#925
1Q
#926
0Q
#927
1Q
#928
0Q
#929
1Q
#930
0Q
#931
1Q
#932
0Q
#933
1Q
#934
0Q
#935
1Q
#936
0Q
#937
1Q
#938
0Q
#939
1Q
#940
0Q
#941
1Q
#942
0Q
#943
1Q
#944
0Q
#945
1Q
#946
0Q
#947
1Q
#948
0Q
#949
1Q
#950
0Q
#951
1Q
#952
0Q
#953
1Q
#954
0Q
#955
1Q
#956
0Q
#957
1Q
#958
0Q
#959
1Q
#960
0Q
#961
1Q
#962
0Q
#963
1Q
#964
0Q
#965
1Q
#966
0Q
#967
1Q
#968
0Q
#969
1Q
#970
0Q
#971
1Q
#972
0Q
#973
1Q
#974
0Q
#975
1Q
#976
0Q
#977
1Q
#978
0Q
#979
1Q
#980
0Q
#981
1Q
#982
0Q
#983
1Q
#984
0Q
#985
1Q
#986
0Q
#987
1Q
#988
0Q
#989
1Q
#990
0Q
#991
1Q
#992
0Q
#993
1Q
#994
0Q
#995
1Q
#996
0Q
#997
1Q
#998
0Q
#999
1Q
#1000
0Q
#1001
1Q
#1002
0Q
#1003
1Q
#1004
0Q
#1005
1Q
#1006
0Q
#1007
1Q
#1008
0Q
#1009
1Q
#1010
0Q
#1011
1Q
#1012
0Q
#1013
b00000000000000000000000001000000000000000000000000000000000000000000000000000000000000000000000000000000000000000000000000000000000000000000000000000000000000000000000000000000000000000000000000000 +
b001 F
b10 G
1Q
1W
b00000000000000000000000001000000 Y
1[
0\
1^
#1014
0Q
0W
0[
#1015
b00 G
1Q
1X
0^
1_
#1016
0Q
1W
b00000000000000000010100000000000 Y
1[
0_
#1017
1Q
0W
0[
